{
    "CURSO": [
        {
            "id": 1,
            "codCurso": "911ae842-08b9-4ba0-9de4-174c5caaebb3",
            "titulo": "Técnico em Informatica",
            "descricao": "Cursos para formação de profissionas de suporte técnico",
            "alunos": [
                {
                    "nome": "Alex Dias da Cruz",
                    "matricula": "alexd@gmail.com"
                },
                {
                    "nome": "Junior Gonçalves",
                    "matricula": "jgoncalves@gmail.com"
                }
            ],
            "professores": [
                {
                    "nome": "David",
                    "codProfessor": "5630ed68-2123-44d7-8fca-74dceb5c61dd"
                }
            ]
        },
        {
            "id": 2,
            "codCurso": "2590fc2f-9406-484a-a487-9a14b94f454b",
            "titulo": "Técnico em Eletronica",
            "descricao": "Cursos para formação de profissionas tecnicos em eletronica",
            "alunos": [
                {
                    "nome": "Ricardo Alves",
                    "matricula": "r_alves@gmail.com"
                }
            ],
            "professores": [
                {
                    "nome": "Regiano Alves",
                    "codProfessor": "bf08c52b-3c5b-4242-8223-e98c0a195c5e"
                }
            ]
        },
        {
            "id": 3,
            "codCurso": "4735d1ea-c6a6-4f1b-9634-b8e1cb29fbe7",
            "titulo": "Técnico em Segurança do Trabalho",
            "descricao": "Cursos para formação de profissionas tecnicos em seguranca do trabalho",
            "professores": [
                {
                    "nome": "Professor 1"
                },
                {
                    "nome": "David",
                    "codProfessor": "5630ed68-2123-44d7-8fca-74dceb5c61dd"
                },
                {
                    "nome": "Hudson Cerpa",
                    "codProfessor": "1fc46355-5384-4e6b-9952-222d519b3d04"
                }
            ],
            "alunos": [
                {
                    "nome": "Alex Dias da Cruz",
                    "matricula": "alexd@gmail.com"
                }
            ]
        },
        {
            "id": 4,
            "codCurso": "0e42e1f2-7718-4dd1-ac41-cf958dca063e",
            "titulo": "Analise e Desenvolvimento de Sistemas",
            "descricao": "Curso com as melhores praticas e metodologias para desenvolvimento de sistemas informatizados!"
        },
        {
            "id": 5,
            "codCurso": "1319a7b8-14bf-45f3-862a-e84fb2db817b",
            "titulo": "Gastronomia",
            "descricao": "Técnicas para cozinha e estudo nutrição!"
        },
        {
            "id": 6,
            "codCurso": "d73113c0-d2f7-4adb-b50c-39bacdc30ba0",
            "titulo": "Programador JAVA",
            "descricao": "Desnvolvimento de Sistema JAVA BACKNDE!"
        }
    ],
    "USUARIO": [
        {
            "nome": "Professor 1",
            "email": "prof1@email.com",
            "senha": "$2a$08$77VXq50YHrSH/UB4srXWNuur3ejnQtwlMbbksSPazMsj83WU/ggk.",
            "tipo": 1,
            "id": 1,
            "cursos": [
                {
                    "titulo": "Técnico em Segurança do Trabalho",
                    "codCurso": "4735d1ea-c6a6-4f1b-9634-b8e1cb29fbe7"
                }
            ]
        },
        {
            "nome": "Aluno 1",
            "formacao": "Sistema de Informacao",
            "idade": 20,
            "email": "aluno1@email.com",
            "senha": "$2a$08$w0r2zw5Barew36ok7JApwORJp4pyE/1UVI4y3DwpabRHx8xhkKwhG",
            "tipo": 2,
            "id": 2
        },
        {
            "id": 3,
            "nome": "Alex Dias da Cruz",
            "senha": "$2a$08$c7RVsNKFfHgMX7GZQk/Fy.HQoL1ikQ0ZZwHn4LVZE.s9cogM2tAyG",
            "email": "alexd@gmail.com",
            "formacao": "Ensino Superior Completo",
            "idade": 26,
            "tipo": 2,
            "matricula": "327fd097-b504-43f7-8bdd-23d704b65399",
            "cursos": [
                {
                    "titulo": "Técnico em Informatica",
                    "codCurso": "911ae842-08b9-4ba0-9de4-174c5caaebb3"
                },
                {
                    "titulo": "Técnico em Segurança do Trabalho",
                    "codCurso": "4735d1ea-c6a6-4f1b-9634-b8e1cb29fbe7"
                }
            ]
        },
        {
            "id": 4,
            "nome": "Ricardo Alves",
            "senha": "$2a$08$sJR.aNpogp9jhQM2/69CouPY3vAD56wGj82UuOE5pa3T5IZxvtcL.",
            "email": "r_alves@gmail.com",
            "formacao": "Ensino Superior Completo",
            "idade": 36,
            "tipo": 2,
            "matricula": "28ded68a-e6a0-4064-b017-afc6e825c9d9",
            "cursos": [
                {
                    "titulo": "Técnico em Eletronica",
                    "codCurso": "2590fc2f-9406-484a-a487-9a14b94f454b"
                }
            ]
        },
        {
            "id": 5,
            "nome": "Junior Gonçalves",
            "senha": "$2a$08$KIWtbbc0tY9f/FXRLOm0I.5ysHipHRrCPMcXfg66HCk1PikaI5jL2",
            "email": "jgoncalves@gmail.com",
            "formacao": "Ensino Técnico Cursando",
            "idade": 19,
            "tipo": 2,
            "matricula": "9d5902de-16bc-4d76-b6e5-bdbd87f50e9a",
            "cursos": [
                {
                    "titulo": "Técnico em Informatica",
                    "codCurso": "911ae842-08b9-4ba0-9de4-174c5caaebb3"
                }
            ]
        },
        {
            "id": 6,
            "codProfessor": "5630ed68-2123-44d7-8fca-74dceb5c61dd",
            "nome": "David",
            "cpf": "12345678",
            "email": "david@stefanini.com",
            "senha": "$2a$08$V566j6miwpHpS0CWmGKXJuG4XcHoL1p6dv8TbPXeTjFysaWiINKKe",
            "cursos": [
                {
                    "titulo": "Técnico em Informatica",
                    "codCurso": "911ae842-08b9-4ba0-9de4-174c5caaebb3"
                },
                {
                    "titulo": "Técnico em Segurança do Trabalho",
                    "codCurso": "4735d1ea-c6a6-4f1b-9634-b8e1cb29fbe7"
                }
            ],
            "tipo": 1
        },
        {
            "id": 7,
            "codProfessor": "1fc46355-5384-4e6b-9952-222d519b3d04",
            "nome": "Hudson Cerpa",
            "cpf": "12345678",
            "email": "hudson@stefanini.com",
            "senha": "$2a$08$md/y0osMDW085Hme9uvCQOGtjI5Jbvs3MyYP9yc/9nhVUJ/aAlyo.",
            "cursos": [
                {
                    "titulo": "Técnico em Segurança do Trabalho",
                    "codCurso": "4735d1ea-c6a6-4f1b-9634-b8e1cb29fbe7"
                }
            ],
            "tipo": 1
        },
        {
            "id": 8,
            "codProfessor": "bf08c52b-3c5b-4242-8223-e98c0a195c5e",
            "nome": "Regiano Alves",
            "cpf": "12345678",
            "email": "regiano_alves@stefanini.com",
            "senha": "$2a$08$w0rUHw0W4UGP1bbSLHuFhOJgpsFmBoUJyHm1vNhsY3Qd6pZUUFnDW",
            "cursos": [
                {
                    "titulo": "Técnico em Eletronica",
                    "codCurso": "2590fc2f-9406-484a-a487-9a14b94f454b"
                }
            ],
            "tipo": 1
        }
    ]
}